PSD/mooreReconfiguravel/simulation/qsim/mooreReconfiguravel.msim.vcd
$comment
	File created using the following command:
		vcd file mooreReconfiguravel.msim.vcd -direction
$end
$date
	Thu May 28 18:53:33 2020
$end
$version
	ModelSim Version 10.3d
$end
$timescale
	1ps
$end

$scope module mooreReconfiguravel_vlg_vec_tst $end
$var reg 1 ! clk $end
$var reg 3 " entrada [2:0] $end
$var wire 1 # saida_moore [1] $end
$var wire 1 $ saida_moore [0] $end
$var wire 1 % sampler $end

$scope module i1 $end
$var wire 1 & gnd $end
$var wire 1 ' vcc $end
$var wire 1 ( unknown $end
$var tri1 1 ) devclrn $end
$var tri1 1 * devpor $end
$var tri1 1 + devoe $end
$var wire 1 , ~QUARTUS_CREATED_GND~I_combout $end
$var wire 1 - clk~input_o $end
$var wire 1 . clk~inputCLKENA0_outclk $end
$var wire 1 / entrada[2]~input_o $end
$var wire 1 0 entrada[1]~input_o $end
$var wire 1 1 entrada[0]~input_o $end
$var wire 1 2 Selector1~2_combout $end
$var wire 1 3 Selector1~1_combout $end
$var wire 1 4 present_state.tres~q $end
$var wire 1 5 Selector1~0_combout $end
$var wire 1 6 present_state.um~q $end
$var wire 1 7 Selector2~0_combout $end
$var wire 1 8 present_state.dois~q $end
$var wire 1 9 Selector5~0_combout $end
$var wire 1 : saida_moore[0]$latch~combout $end
$var wire 1 ; saida_moore[1]$latch~combout $end
$upscope $end
$upscope $end
$enddefinitions $end
#0
$dumpvars
1!
b100 "
x$
0#
x%
0&
1'
x(
1)
1*
1+
0,
1-
1.
1/
00
01
02
03
04
15
06
07
08
09
x:
0;
$end
#10000
0!
0-
0%
0.
#20000
1!
1-
1%
1.
#60000
0!
0-
0%
0.
#70000
1!
1-
1%
1.
#80000
0!
0-
0%
0.
#90000
1!
1-
1%
1.
#110000
0!
0-
0%
0.
#140000
1!
1-
1%
1.
#150000
0!
0-
0%
0.
#160000
1!
1-
1%
1.
#190000
0!
0-
0%
0.
#200000
1!
1-
1%
1.
#240000
0!
0-
0%
0.
#260000
1!
1-
1%
1.
#270000
0!
0-
0%
0.
#280000
1!
1-
1%
1.
#290000
0!
0-
0%
0.
#340000
1!
1-
1%
1.
#370000
0!
0-
0%
0.
#380000
1!
1-
1%
1.
#390000
0!
0-
0%
0.
#410000
1!
1-
1%
1.
#420000
0!
0-
0%
0.
#430000
1!
1-
1%
1.
#460000
0!
0-
0%
0.
#480000
1!
1-
1%
1.
#500000
0!
0-
0%
0.
#530000
1!
1-
1%
1.
#540000
0!
0-
0%
0.
#580000
1!
1-
1%
1.
#600000
0!
0-
0%
0.
#610000
1!
1-
1%
1.
#630000
0!
0-
0%
0.
#650000
1!
1-
1%
1.
#660000
0!
0-
0%
0.
#690000
1!
1-
1%
1.
#700000
0!
0-
0%
0.
#740000
1!
1-
1%
1.
#750000
0!
0-
0%
0.
#760000
1!
1-
1%
1.
#770000
0!
0-
0%
0.
#800000
1!
1-
1%
1.
#830000
0!
0-
0%
0.
#840000
1!
1-
1%
1.
#850000
0!
0-
0%
0.
#860000
1!
1-
1%
1.
#880000
0!
0-
0%
0.
#890000
1!
1-
1%
1.
#920000
0!
0-
0%
0.
#940000
1!
1-
1%
1.
#960000
0!
0-
0%
0.
#980000
1!
1-
1%
1.
#990000
0!
0-
0%
0.
